{
    "page": 1,
    "total_results": 2450,
    "total_pages": 123,
    "results": [
        {
            "vote_count": 1609,
            "id": 351286,
            "video": false,
            "vote_average": 6.6,
            "title": "Jurassic World: Fallen Kingdom",
            "popularity": 330.924,
            "poster_path": "/c9XxwwhPHdaImA2f1WEfEsbhaFB.jpg",
            "original_language": "en",
            "original_title": "Jurassic World: Fallen Kingdom",
            "genre_ids": [
                28,
                12,
                878
            ],
            "backdrop_path": "/gBmrsugfWpiXRh13Vo3j0WW55qD.jpg",
            "adult": false,
            "overview": "Several years after the demise of Jurassic World, a volcanic eruption threatens the remaining dinosaurs on the island of Isla Nublar. Claire Dearing, the former park manager and founder of the Dinosaur Protection Group, recruits Owen Grady to help prevent the extinction of the dinosaurs once again.",
            "release_date": "2018-06-06"
        },
        {
            "vote_count": 828,
            "id": 260513,
            "video": false,
            "vote_average": 7.7,
            "title": "Incredibles 2",
            "popularity": 189.391,
            "poster_path": "/x1txcDXkcM65gl7w20PwYSxAYah.jpg",
            "original_language": "en",
            "original_title": "Incredibles 2",
            "genre_ids": [
                28,
                12,
                16,
                10751
            ],
            "backdrop_path": "/mabuNsGJgRuCTuGqjFkWe1xdu19.jpg",
            "adult": false,
            "overview": "Elastigirl springs into action to save the day, while Mr. Incredible faces his greatest challenge yet – taking care of the problems of his three children.",
            "release_date": "2018-06-14"
        },
        {
            "vote_count": 203,
            "id": 363088,
            "video": false,
            "vote_average": 7.2,
            "title": "Ant-Man and the Wasp",
            "popularity": 187.965,
            "poster_path": "/rv1AWImgx386ULjcf62VYaW8zSt.jpg",
            "original_language": "en",
            "original_title": "Ant-Man and the Wasp",
            "genre_ids": [
                28,
                12,
                14,
                35,
                878
            ],
            "backdrop_path": "/6P3c80EOm7BodndGBUAJHHsHKrp.jpg",
            "adult": false,
            "overview": "As Scott Lang balances being both a superhero and a father, Hope van Dyne and Dr. Hank Pym present an urgent new mission that finds the Ant-Man fighting alongside the Wasp to uncover secrets from their past.",
            "release_date": "2018-07-04"
        },
        {
            "vote_count": 95,
            "id": 442249,
            "video": false,
            "vote_average": 6.4,
            "title": "The First Purge",
            "popularity": 102.617,
            "poster_path": "/2slvblTroiT1lY9bYLK7Amigo1k.jpg",
            "original_language": "en",
            "original_title": "The First Purge",
            "genre_ids": [
                28,
                27,
                878,
                53
            ],
            "backdrop_path": "/8FhHeKdeFIhf0pk4RkG1HqbhxRX.jpg",
            "adult": false,
            "overview": "To push the crime rate below one percent for the rest of the year, the New Founding Fathers of America test a sociological theory that vents aggression for one night in one isolated community. But when the violence of oppressors meets the rage of the others, the contagion will explode from the trial-city borders and spread across the nation.",
            "release_date": "2018-07-04"
        },
        {
            "vote_count": 1,
            "id": 523873,
            "video": false,
            "vote_average": 0,
            "title": "Kung Fu League",
            "popularity": 56.344,
            "poster_path": "/rW0A73hjzPWVwADlCTLnjLhAFLX.jpg",
            "original_language": "zh",
            "original_title": "黄飞鸿之南北英雄",
            "genre_ids": [
                28,
                35
            ],
            "backdrop_path": "/ebf3uDZkIQO46Wp7Oj7nHdYl6Wa.jpg",
            "adult": false,
            "overview": "Martial arts comedy following a group of kung fu legends banding together to take on the bad guys. The legends includes VINCENT ZHAO reprising his role as ‘Wong Fei Hung’ with DENNIS TO once again portraying ‘Wing Chun’ master ‘Ip Man’, DANNY CHAN KWOK KWAN as ‘Chen Zhen’ and ANDY ON as master ‘Huo Yuan Jia’.",
            "release_date": "2018-10-19"
        },
        {
            "vote_count": 6,
            "id": 353081,
            "video": false,
            "vote_average": 0,
            "title": "Mission: Impossible - Fallout",
            "popularity": 52.692,
            "poster_path": "/80PWnSTkygi3QWWmJ3hrAwqvLnO.jpg",
            "original_language": "en",
            "original_title": "Mission: Impossible - Fallout",
            "genre_ids": [
                12,
                28,
                53
            ],
            "backdrop_path": "/5qxePyMYDisLe8rJiBYX8HKEyv2.jpg",
            "adult": false,
            "overview": "The sixth installment in the \"Mission: Impossible\". When an IMF mission ends badly, the world is faced with dire consequences. As Ethan Hunt takes it upon himself to fulfil his original briefing, the CIA begin to question his loyalty and his motives. The IMF team find themselves in a race against time, hunted by assassins while trying to prevent a global catastrophe.",
            "release_date": "2018-07-25"
        },
        {
            "vote_count": 105,
            "id": 411143,
            "video": false,
            "vote_average": 6.4,
            "title": "Tau",
            "popularity": 43.23,
            "poster_path": "/qqYOlCee3X7cKg05EOQH1htcHmy.jpg",
            "original_language": "en",
            "original_title": "Tau",
            "genre_ids": [
                878,
                53
            ],
            "backdrop_path": "/b6Eiab3GzmO58y1ixxr2coA43Nd.jpg",
            "adult": false,
            "overview": "Held captive in a futuristic smart house, a woman hopes to escape by befriending the A.I. program that controls the house.",
            "release_date": "2018-06-20"
        },
        {
            "vote_count": 505,
            "id": 402900,
            "video": false,
            "vote_average": 6.8,
            "title": "Ocean's 8",
            "popularity": 43.199,
            "poster_path": "/MvYpKlpFukTivnlBhizGbkAe3v.jpg",
            "original_language": "en",
            "original_title": "Ocean's 8",
            "genre_ids": [
                80,
                35,
                28,
                53
            ],
            "backdrop_path": "/zBIfBeStaDdDdhBrSx8InhgFUVa.jpg",
            "adult": false,
            "overview": "Debbie Ocean, a criminal mastermind, gathers a crew of seven other female thieves to pull off the heist of the century at New York's annual Met Gala.",
            "release_date": "2018-06-07"
        },
        {
            "vote_count": 107,
            "id": 440471,
            "video": false,
            "vote_average": 4.6,
            "title": "Escape Plan 2: Hades",
            "popularity": 38.113,
            "poster_path": "/Aqhl55vpzxNFqVfc2DpedUsR39L.jpg",
            "original_language": "en",
            "original_title": "Escape Plan 2: Hades",
            "genre_ids": [
                80,
                28,
                53
            ],
            "backdrop_path": "/xIAaN3AQqaJiN5RJ0WsmBady8Hq.jpg",
            "adult": false,
            "overview": "Ray Breslin manages an elite team of security specialists trained in the art of breaking people out of the world's most impenetrable prisons. When his most trusted operative, Shu Ren, is kidnapped and disappears inside the most elaborate prison ever built, Ray must track him down with the help of some of his former friends.",
            "release_date": "2018-06-05"
        },
        {
            "vote_count": 106,
            "id": 400535,
            "video": false,
            "vote_average": 6.7,
            "title": "Sicario: Day of the Soldado",
            "popularity": 37.497,
            "poster_path": "/OdD7A0LgLXPjqzmfcEl9sTYVPo.jpg",
            "original_language": "en",
            "original_title": "Sicario: Day of the Soldado",
            "genre_ids": [
                28,
                80,
                18,
                53
            ],
            "backdrop_path": "/uDRb7zVqtqMtXS8bnqYJ17SlhK8.jpg",
            "adult": false,
            "overview": "FBI agent Matt Graver teams up with operative Alejandro Gillick to prevent Mexican drug cartels from smuggling terrorists across the U.S. border.",
            "release_date": "2018-06-27"
        },
        {
            "vote_count": 6,
            "id": 400155,
            "video": false,
            "vote_average": 6.8,
            "title": "Hotel Transylvania 3: Summer Vacation",
            "popularity": 35.253,
            "poster_path": "/nbjqedtHhR6HFlAHFMTFGcnoTzq.jpg",
            "original_language": "en",
            "original_title": "Hotel Transylvania 3: Summer Vacation",
            "genre_ids": [
                10751,
                14,
                35,
                16
            ],
            "backdrop_path": "/m03jul0YdVEOFXEQVUv6pOVQYGL.jpg",
            "adult": false,
            "overview": "Dracula, Mavis, Johnny and the rest of the Drac Pack take a vacation on a luxury Monster Cruise Ship, where Dracula falls in love with the ship's captain, Ericka, who's secretly a descendant of Abraham Van Helsing, the notorious monster slayer.",
            "release_date": "2018-07-12"
        },
        {
            "vote_count": 87,
            "id": 455980,
            "video": false,
            "vote_average": 7.1,
            "title": "Tag",
            "popularity": 34.084,
            "poster_path": "/eXXpuW2xaq5Aen9N5prFlARVIvr.jpg",
            "original_language": "en",
            "original_title": "Tag",
            "genre_ids": [
                35
            ],
            "backdrop_path": "/yRXzrwLfB5tDTIA3lSU9S3N9RUK.jpg",
            "adult": false,
            "overview": "For one month every year, five highly competitive friends hit the ground running in a no-holds-barred game of tag they’ve been playing since the first grade. This year, the game coincides with the wedding of their only undefeated player, which should finally make him an easy target. But he knows they’re coming...and he’s ready.",
            "release_date": "2018-06-14"
        },
        {
            "vote_count": 3,
            "id": 447200,
            "video": false,
            "vote_average": 7,
            "title": "Skyscraper",
            "popularity": 33.085,
            "poster_path": "/5LYSsOPzuP13201qSzMjNxi8FxN.jpg",
            "original_language": "en",
            "original_title": "Skyscraper",
            "genre_ids": [
                28,
                53,
                18
            ],
            "backdrop_path": "/oMKFQmoVgB69fyXfSMu0lGlHJP2.jpg",
            "adult": false,
            "overview": "Framed and on the run, a former FBI agent must save his family from a blazing fire in the world's tallest building.",
            "release_date": "2018-07-11"
        },
        {
            "vote_count": 301,
            "id": 493922,
            "video": false,
            "vote_average": 7,
            "title": "Hereditary",
            "popularity": 30.527,
            "poster_path": "/4GFPuL14eXi66V96xBWY73Y9PfR.jpg",
            "original_language": "en",
            "original_title": "Hereditary",
            "genre_ids": [
                27,
                18,
                9648,
                53
            ],
            "backdrop_path": "/yVWiOMpzf7gullGvug83r7gMdha.jpg",
            "adult": false,
            "overview": "After their reclusive grandmother passes away, the Graham family begins to unravel cryptic and increasingly terrifying secrets about their ancestry. The more they discover, the more they find themselves trying to outrun the sinister fate they seem to have inherited.",
            "release_date": "2018-06-04"
        },
        {
            "vote_count": 0,
            "id": 320288,
            "video": false,
            "vote_average": 0,
            "title": "X-Men: Dark Phoenix",
            "popularity": 30.436,
            "poster_path": "/6qmsupE0opYPIaBGe7T5D2FBzLs.jpg",
            "original_language": "en",
            "original_title": "X-Men: Dark Phoenix",
            "genre_ids": [
                28,
                878
            ],
            "backdrop_path": "/phxiKFDvPeQj4AbkvJLmuZEieDU.jpg",
            "adult": false,
            "overview": "Gathered together by Professor Charles Xavier to protect a world that fears and hates them, the X-Men had fought many battles, been on adventures that spanned galaxies, grappled enemies of limitless might, but none of this could prepare them for the most shocking struggle they would ever face. One of their own members, Jean Grey, has gained power beyond all comprehension, and that power has corrupted her absolutely! Now, they must decide if the life of the woman they cherish is worth the existence of the entire universe!",
            "release_date": "2019-02-05"
        },
        {
            "vote_count": 7,
            "id": 526224,
            "video": false,
            "vote_average": 6.3,
            "title": "Big Legend",
            "popularity": 29.533,
            "poster_path": "/tX20J2FDwARvOcvMutyoox8azl6.jpg",
            "original_language": "en",
            "original_title": "Big Legend",
            "genre_ids": [
                28,
                27,
                53
            ],
            "backdrop_path": "/8pEFVCxvD33ew4wslgG2TmJLLFT.jpg",
            "adult": false,
            "overview": "An ex-soldier ventures into the Pacific Northwest to uncover the truth behind his fiance's disappearance.",
            "release_date": "2018-07-01"
        },
        {
            "vote_count": 14,
            "id": 487670,
            "video": false,
            "vote_average": 7.9,
            "title": "The Death of Superman",
            "popularity": 24.942,
            "poster_path": "/y0uxSHaSFmt6XaBJgjkeLqe7aM.jpg",
            "original_language": "en",
            "original_title": "The Death of Superman",
            "genre_ids": [
                16,
                28,
                18,
                878
            ],
            "backdrop_path": "/9FdCHAV2YzndUR7tYWIq8O9uvVv.jpg",
            "adult": false,
            "overview": "When a hulking monster emerges from an underground resting place and begins a mindless rampage, the Justice League is quickly called in to stop the colossal force of nature. But it soon becomes apparent that only Superman can stand against the monstrosity that has been nicknamed Doomsday.",
            "release_date": "2018-07-03"
        },
        {
            "vote_count": 25,
            "id": 339103,
            "video": false,
            "vote_average": 5.8,
            "title": "Gotti",
            "popularity": 24.261,
            "poster_path": "/aJODtXkQBK0lEmD4x5KkALnSiN1.jpg",
            "original_language": "en",
            "original_title": "Gotti",
            "genre_ids": [
                80,
                18,
                36
            ],
            "backdrop_path": "/yttjD5YVSW4E1pdj2Ea3zQjlw1P.jpg",
            "adult": false,
            "overview": "John Gotti rises to the top of the New York underworld to become the boss of the Gambino crime family. His life takes a tumultuous turn as he faces tragedy, multiple trials and a prison sentence.",
            "release_date": "2018-06-15"
        },
        {
            "vote_count": 33,
            "id": 474051,
            "video": false,
            "vote_average": 6.7,
            "title": "Calibre",
            "popularity": 23.498,
            "poster_path": "/gCVOQzV7Z556WnJFNeX7y8BFhyW.jpg",
            "original_language": "en",
            "original_title": "Calibre",
            "genre_ids": [
                53
            ],
            "backdrop_path": "/yVfhwgLBFDdI1LuaiFfA7y2FbVi.jpg",
            "adult": false,
            "overview": "Two lifelong friends head up to an isolated Scottish Highlands village for a weekend hunting trip. Nothing could prepare them for what follows.",
            "release_date": "2018-06-22"
        },
        {
            "vote_count": 0,
            "id": 507086,
            "video": false,
            "vote_average": 0,
            "title": "Jurassic World 3",
            "popularity": 22.985,
            "poster_path": null,
            "original_language": "en",
            "original_title": "Jurassic World 3",
            "genre_ids": [
                12,
                28,
                878
            ],
            "backdrop_path": null,
            "adult": false,
            "overview": "Second sequel to Jurassic World.",
            "release_date": "2021-06-11"
        }
    ]
}